{
  "abstract": [
    {
      "text": "Get a list of the users on your team.",
      "type": "text"
    }
  ],
  "hierarchy": {
    "paths": [
      [
        "doc://com.apple.documentation/documentation/technologies",
        "doc://com.apple.devpubs.enterprise-api/documentation/EnterpriseProgramAPI"
      ]
    ]
  },
  "identifier": {
    "interfaceLanguage": "data",
    "url": "doc://com.apple.devpubs.enterprise-api/documentation/EnterpriseProgramAPI/List-Users"
  },
  "kind": "symbol",
  "legalNotices": {
    "copyright": "Copyright &copy; 2025 Apple Inc. All rights reserved.",
    "privacyPolicy": "https://www.apple.com/privacy/privacy-policy",
    "termsOfUse": "https://www.apple.com/legal/internet-services/terms/site.html"
  },
  "metadata": {
    "externalID": "rest:app_store_connect_api:get:v1-users",
    "modules": [
      {
        "name": "Enterprise Program API"
      }
    ],
    "navigatorTitle": [
      {
        "kind": "identifier",
        "text": "List Users"
      }
    ],
    "role": "symbol",
    "roleHeading": "Web Service Endpoint",
    "symbolKind": "httpRequest",
    "title": "List Users"
  },
  "primaryContentSections": [
    {
      "kind": "restEndpoint",
      "title": "URL",
      "tokens": [
        {
          "kind": "method",
          "text": "GET"
        },
        {
          "kind": "text",
          "text": " "
        },
        {
          "kind": "baseURL",
          "text": "https://api.enterprise.developer.apple.com/"
        },
        {
          "kind": "path",
          "text": "v1/users"
        }
      ]
    },
    {
      "items": [
        {
          "attributes": [
            {
              "kind": "allowedValues",
              "values": [
                "firstName",
                "lastName",
                "roles",
                "username"
              ]
            }
          ],
          "content": [
            {
              "inlineContent": [
                {
                  "text": "Fields to return for included related types.",
                  "type": "text"
                }
              ],
              "type": "paragraph"
            }
          ],
          "name": "fields[users]",
          "required": false,
          "type": [
            {
              "kind": "text",
              "text": "[string]"
            }
          ],
          "typeDetails": [
            {
              "arrayMode": true,
              "baseType": "string"
            }
          ]
        },
        {
          "attributes": [
            {
              "kind": "maximum",
              "value": "200"
            }
          ],
          "content": [
            {
              "inlineContent": [
                {
                  "text": "Number of resources to return.",
                  "type": "text"
                }
              ],
              "type": "paragraph"
            }
          ],
          "name": "limit",
          "required": false,
          "type": [
            {
              "kind": "text",
              "text": "integer"
            }
          ],
          "typeDetails": [
            {
              "baseType": "integer"
            }
          ]
        },
        {
          "attributes": [
            {
              "kind": "allowedValues",
              "values": [
                "lastName",
                "-lastName",
                "username",
                "-username"
              ]
            }
          ],
          "content": [
            {
              "inlineContent": [
                {
                  "text": "Attributes by which to sort.",
                  "type": "text"
                }
              ],
              "type": "paragraph"
            }
          ],
          "name": "sort",
          "required": false,
          "type": [
            {
              "kind": "text",
              "text": "[string]"
            }
          ],
          "typeDetails": [
            {
              "arrayMode": true,
              "baseType": "string"
            }
          ]
        },
        {
          "attributes": [
            {
              "kind": "allowedValues",
              "values": [
                "ADMIN",
                "ACCOUNT_HOLDER",
                "DEVELOPER"
              ]
            }
          ],
          "content": [
            {
              "inlineContent": [
                {
                  "text": "Attributes, relationships, and IDs by which to filter.",
                  "type": "text"
                }
              ],
              "type": "paragraph"
            }
          ],
          "name": "filter[roles]",
          "required": false,
          "type": [
            {
              "kind": "text",
              "text": "[string]"
            }
          ],
          "typeDetails": [
            {
              "arrayMode": true,
              "baseType": "string"
            }
          ]
        },
        {
          "attributes": [],
          "content": [
            {
              "inlineContent": [
                {
                  "text": "Attributes, relationships, and IDs by which to filter.",
                  "type": "text"
                }
              ],
              "type": "paragraph"
            }
          ],
          "name": "filter[username]",
          "required": false,
          "type": [
            {
              "kind": "text",
              "text": "[string]"
            }
          ],
          "typeDetails": [
            {
              "arrayMode": true,
              "baseType": "string"
            }
          ]
        }
      ],
      "kind": "restParameters",
      "source": "query",
      "title": "Query Parameters"
    },
    {
      "items": [
        {
          "content": [
            {
              "inlineContent": [
                {
                  "text": "",
                  "type": "text"
                }
              ],
              "type": "paragraph"
            }
          ],
          "mimeType": "application/json",
          "reason": "OK",
          "status": 200,
          "type": [
            {
              "identifier": "doc://com.apple.devpubs.enterprise-api/documentation/EnterpriseProgramAPI/UsersResponse",
              "kind": "typeIdentifier",
              "preciseIdentifier": "data:app_store_connect_api:UsersResponse",
              "text": "UsersResponse"
            }
          ]
        },
        {
          "content": [
            {
              "inlineContent": [
                {
                  "text": "An error occurred with your request.",
                  "type": "text"
                }
              ],
              "type": "paragraph"
            }
          ],
          "mimeType": "application/json",
          "reason": "Bad Request",
          "status": 400,
          "type": [
            {
              "identifier": "doc://com.apple.devpubs.enterprise-api/documentation/EnterpriseProgramAPI/ErrorResponse",
              "kind": "typeIdentifier",
              "preciseIdentifier": "data:app_store_connect_api:ErrorResponse",
              "text": "ErrorResponse"
            }
          ]
        },
        {
          "content": [
            {
              "inlineContent": [
                {
                  "text": "",
                  "type": "text"
                }
              ],
              "type": "paragraph"
            }
          ],
          "mimeType": "application/json",
          "reason": "Unauthorized",
          "status": 401,
          "type": [
            {
              "identifier": "doc://com.apple.devpubs.enterprise-api/documentation/EnterpriseProgramAPI/ErrorResponse",
              "kind": "typeIdentifier",
              "preciseIdentifier": "data:app_store_connect_api:ErrorResponse",
              "text": "ErrorResponse"
            }
          ]
        },
        {
          "content": [
            {
              "inlineContent": [
                {
                  "text": "Request not authorized.",
                  "type": "text"
                }
              ],
              "type": "paragraph"
            }
          ],
          "mimeType": "application/json",
          "reason": "Forbidden",
          "status": 403,
          "type": [
            {
              "identifier": "doc://com.apple.devpubs.enterprise-api/documentation/EnterpriseProgramAPI/ErrorResponse",
              "kind": "typeIdentifier",
              "preciseIdentifier": "data:app_store_connect_api:ErrorResponse",
              "text": "ErrorResponse"
            }
          ]
        }
      ],
      "kind": "restResponses",
      "title": "Response Codes"
    },
    {
      "content": [
        {
          "anchor": "Example-Request-and-Response",
          "level": 3,
          "text": "Example Request and Response",
          "type": "heading"
        },
        {
          "tabs": [
            {
              "content": [
                {
                  "code": [
                    "https://qa.api.adep.ase.apple.com/v1/users?limit=2"
                  ],
                  "syntax": null,
                  "type": "codeListing"
                }
              ],
              "title": "Request"
            },
            {
              "content": [
                {
                  "code": [
                    "{",
                    "\"data\": [",
                    "{",
                    "\"type\": \"users\",",
                    "\"id\": \"a514773b-b4ed-4564-9d97-6215bda0662b\",",
                    "\"attributes\": {",
                    "\"username\": \"username\",",
                    "\"firstName\": \"Firstname\",",
                    "\"lastName\": \"Lastname\",",
                    "\"roles\": [",
                    "  \"DEVELOPER\"",
                    "]",
                    "},",
                    "\"links\": {",
                    "\"self\": \"https://qa.api.adep.ase.apple.com/v1/users/a514773b-b4ed-4564-9d97-6215bda0662b\"",
                    "}",
                    "},",
                    "{",
                    "\"type\": \"users\",",
                    "\"id\": \"c26a77a6-b906-4191-90b8-4f181fa2c7d3\",",
                    "\"attributes\": {",
                    "\"username\": \"username\",",
                    "\"firstName\": \"Firstname\",",
                    "\"lastName\": \"Lastname\",",
                    "\"roles\": [",
                    "  \"DEVELOPER\"",
                    "]",
                    "},",
                    "\"links\": {",
                    "\"self\": \"https://qa.api.adep.ase.apple.com/v1/users/c26a77a6-b906-4191-90b8-4f181fa2c7d3\"",
                    "}",
                    "}",
                    "],",
                    "\"links\": {",
                    "\"self\": \"https://qa.api.adep.ase.apple.com/v1/users?limit=2\",",
                    "\"next\": \"https://qa.api.adep.ase.apple.com/v1/users?cursor=Ag.FcUD4A&limit=2\"",
                    "},",
                    "\"meta\": {",
                    "\"paging\": {",
                    "\"total\": 150,",
                    "\"limit\": 2",
                    "}",
                    "}",
                    "}"
                  ],
                  "syntax": "json",
                  "type": "codeListing"
                }
              ],
              "title": "Response"
            }
          ],
          "type": "tabNavigator"
        }
      ],
      "kind": "content"
    }
  ],
  "references": {
    "doc://com.apple.devpubs.enterprise-api/documentation/EnterpriseProgramAPI": {
      "abstract": [
        {
          "text": "Automate the tasks you perform on the Apple Developer website.",
          "type": "text"
        }
      ],
      "identifier": "doc://com.apple.devpubs.enterprise-api/documentation/EnterpriseProgramAPI",
      "kind": "symbol",
      "role": "collection",
      "title": "Enterprise Program API",
      "type": "topic",
      "url": "/documentation/enterpriseprogramapi"
    },
    "doc://com.apple.devpubs.enterprise-api/documentation/EnterpriseProgramAPI/ErrorResponse": {
      "abstract": [
        {
          "text": "The error details that an API returns in the response body whenever the API request isn’t successful.",
          "type": "text"
        }
      ],
      "fragments": [
        {
          "kind": "text",
          "text": "object "
        },
        {
          "kind": "identifier",
          "text": "ErrorResponse"
        }
      ],
      "identifier": "doc://com.apple.devpubs.enterprise-api/documentation/EnterpriseProgramAPI/ErrorResponse",
      "kind": "symbol",
      "navigatorTitle": [
        {
          "kind": "identifier",
          "text": "ErrorResponse"
        }
      ],
      "role": "symbol",
      "title": "ErrorResponse",
      "type": "topic",
      "url": "/documentation/enterpriseprogramapi/errorresponse"
    },
    "doc://com.apple.devpubs.enterprise-api/documentation/EnterpriseProgramAPI/List-Users": {
      "abstract": [
        {
          "text": "Get a list of the users on your team.",
          "type": "text"
        }
      ],
      "identifier": "doc://com.apple.devpubs.enterprise-api/documentation/EnterpriseProgramAPI/List-Users",
      "kind": "symbol",
      "navigatorTitle": [
        {
          "kind": "identifier",
          "text": "List Users"
        }
      ],
      "role": "symbol",
      "title": "List Users",
      "type": "topic",
      "url": "/documentation/enterpriseprogramapi/list-users"
    },
    "doc://com.apple.devpubs.enterprise-api/documentation/EnterpriseProgramAPI/Read-User-Information": {
      "abstract": [
        {
          "text": "Get information about a user on your team, such as name, roles, and app visibility.",
          "type": "text"
        }
      ],
      "identifier": "doc://com.apple.devpubs.enterprise-api/documentation/EnterpriseProgramAPI/Read-User-Information",
      "kind": "symbol",
      "navigatorTitle": [
        {
          "kind": "identifier",
          "text": "Read User Information"
        }
      ],
      "role": "symbol",
      "title": "Read User Information",
      "type": "topic",
      "url": "/documentation/enterpriseprogramapi/read-user-information"
    },
    "doc://com.apple.devpubs.enterprise-api/documentation/EnterpriseProgramAPI/UsersResponse": {
      "abstract": [
        {
          "text": "A response that contains a list of Users resources.",
          "type": "text"
        }
      ],
      "fragments": [
        {
          "kind": "text",
          "text": "object "
        },
        {
          "kind": "identifier",
          "text": "UsersResponse"
        }
      ],
      "identifier": "doc://com.apple.devpubs.enterprise-api/documentation/EnterpriseProgramAPI/UsersResponse",
      "kind": "symbol",
      "navigatorTitle": [
        {
          "kind": "identifier",
          "text": "UsersResponse"
        }
      ],
      "role": "symbol",
      "title": "UsersResponse",
      "type": "topic",
      "url": "/documentation/enterpriseprogramapi/usersresponse"
    },
    "doc://com.apple.documentation/documentation/technologies": {
      "abstract": [
        {
          "text": "",
          "type": "text"
        }
      ],
      "identifier": "doc://com.apple.documentation/documentation/technologies",
      "kind": "technologies",
      "role": "overview",
      "title": "Technologies",
      "type": "topic",
      "url": "/documentation/technologies"
    }
  },
  "schemaVersion": {
    "major": 0,
    "minor": 3,
    "patch": 0
  },
  "sections": [],
  "seeAlsoSections": [
    {
      "anchor": "Getting-User-Information",
      "generated": true,
      "identifiers": [
        "doc://com.apple.devpubs.enterprise-api/documentation/EnterpriseProgramAPI/Read-User-Information"
      ],
      "title": "Getting User Information"
    }
  ],
  "variants": [
    {
      "paths": [
        "/documentation/enterpriseprogramapi/list-users"
      ],
      "traits": [
        {
          "interfaceLanguage": "data"
        }
      ]
    }
  ]
}
