{
  "abstract": [
    {
      "text": "Get all the available price points for a specific app.",
      "type": "text"
    }
  ],
  "diffAvailability": {
    "beta": {
      "change": "modified",
      "platform": "App Store Connect API",
      "versions": [
        "3.6 beta 1",
        "3.6"
      ]
    },
    "major": {
      "change": "modified",
      "platform": "App Store Connect API",
      "versions": [
        "3.0",
        "3.6"
      ]
    },
    "minor": {
      "change": "modified",
      "platform": "App Store Connect API",
      "versions": [
        "3.5",
        "3.6"
      ]
    }
  },
  "hierarchy": {
    "paths": [
      [
        "doc://com.apple.documentation/documentation/technologies",
        "doc://com.apple.appstoreconnectapi/documentation/AppStoreConnectAPI"
      ]
    ]
  },
  "identifier": {
    "interfaceLanguage": "data",
    "url": "doc://com.apple.appstoreconnectapi/documentation/AppStoreConnectAPI/GET-v1-apps-_id_-appPricePoints"
  },
  "kind": "symbol",
  "legalNotices": {
    "copyright": "Copyright &copy; 2025 Apple Inc. All rights reserved.",
    "privacyPolicy": "https://www.apple.com/privacy/privacy-policy",
    "termsOfUse": "https://www.apple.com/legal/internet-services/terms/site.html"
  },
  "metadata": {
    "externalID": "rest:app_store_connect_api:get:v1-apps-{}-appPricePoints",
    "modules": [
      {
        "name": "App Store Connect API"
      }
    ],
    "navigatorTitle": [
      {
        "kind": "identifier",
        "text": "GET /v1/apps/{id}/appPricePoints"
      }
    ],
    "platforms": [
      {
        "beta": false,
        "introducedAt": "2.3",
        "name": "App Store Connect API"
      }
    ],
    "role": "symbol",
    "roleHeading": "Web Service Endpoint",
    "symbolKind": "httpRequest",
    "title": "List all price points for an app"
  },
  "primaryContentSections": [
    {
      "kind": "restEndpoint",
      "title": "URL",
      "tokens": [
        {
          "kind": "method",
          "text": "GET"
        },
        {
          "kind": "text",
          "text": " "
        },
        {
          "kind": "baseURL",
          "text": "https://api.appstoreconnect.apple.com/"
        },
        {
          "kind": "path",
          "text": "v1/apps/"
        },
        {
          "kind": "parameter",
          "text": "{id}"
        },
        {
          "kind": "path",
          "text": "/appPricePoints"
        }
      ]
    },
    {
      "items": [
        {
          "attributes": [],
          "content": [
            {
              "inlineContent": [
                {
                  "text": "An opaque resource ID that uniquely identifies the resource. Obtain the app resource ID from the ",
                  "type": "text"
                },
                {
                  "identifier": "doc://com.apple.appstoreconnectapi/documentation/AppStoreConnectAPI/GET-v1-apps",
                  "isActive": true,
                  "type": "reference"
                },
                {
                  "text": " response.",
                  "type": "text"
                }
              ],
              "type": "paragraph"
            }
          ],
          "name": "id",
          "required": true,
          "type": [
            {
              "kind": "text",
              "text": "string"
            }
          ]
        }
      ],
      "kind": "restParameters",
      "source": "path",
      "title": "Path Parameters"
    },
    {
      "items": [
        {
          "attributes": [
            {
              "kind": "allowedValues",
              "values": [
                "customerPrice",
                "proceeds",
                "app",
                "equalizations",
                "territory"
              ]
            }
          ],
          "content": [
            {
              "inlineContent": [
                {
                  "text": "",
                  "type": "text"
                }
              ],
              "type": "paragraph"
            }
          ],
          "name": "fields[appPricePoints]",
          "required": false,
          "type": [
            {
              "kind": "text",
              "text": "[string]"
            }
          ]
        },
        {
          "attributes": [
            {
              "kind": "allowedValues",
              "values": [
                "name",
                "bundleId",
                "sku",
                "primaryLocale",
                "isOrEverWasMadeForKids",
                "subscriptionStatusUrl",
                "subscriptionStatusUrlVersion",
                "subscriptionStatusUrlForSandbox",
                "subscriptionStatusUrlVersionForSandbox",
                "contentRightsDeclaration",
                "streamlinedPurchasingEnabled",
                "appEncryptionDeclarations",
                "ciProduct",
                "betaTesters",
                "betaGroups",
                "appStoreVersions",
                "preReleaseVersions",
                "betaAppLocalizations",
                "builds",
                "betaLicenseAgreement",
                "betaAppReviewDetail",
                "appInfos",
                "appClips",
                "appPricePoints",
                "endUserLicenseAgreement",
                "appPriceSchedule",
                "appAvailabilityV2",
                "inAppPurchases",
                "subscriptionGroups",
                "gameCenterEnabledVersions",
                "perfPowerMetrics",
                "appCustomProductPages",
                "inAppPurchasesV2",
                "promotedPurchases",
                "appEvents",
                "reviewSubmissions",
                "subscriptionGracePeriod",
                "customerReviews",
                "gameCenterDetail",
                "appStoreVersionExperimentsV2",
                "alternativeDistributionKey",
                "analyticsReportRequests",
                "marketplaceSearchDetail"
              ]
            }
          ],
          "content": [
            {
              "inlineContent": [
                {
                  "text": "",
                  "type": "text"
                }
              ],
              "type": "paragraph"
            }
          ],
          "name": "fields[apps]",
          "required": false,
          "type": [
            {
              "kind": "text",
              "text": "[string]"
            }
          ]
        },
        {
          "attributes": [
            {
              "kind": "allowedValues",
              "values": [
                "currency"
              ]
            }
          ],
          "content": [
            {
              "inlineContent": [
                {
                  "text": "",
                  "type": "text"
                }
              ],
              "type": "paragraph"
            }
          ],
          "name": "fields[territories]",
          "required": false,
          "type": [
            {
              "kind": "text",
              "text": "[string]"
            }
          ]
        },
        {
          "attributes": [],
          "content": [
            {
              "inlineContent": [
                {
                  "text": "",
                  "type": "text"
                }
              ],
              "type": "paragraph"
            }
          ],
          "name": "filter[territory]",
          "required": false,
          "type": [
            {
              "kind": "text",
              "text": "[string]"
            }
          ]
        },
        {
          "attributes": [
            {
              "kind": "allowedValues",
              "values": [
                "app",
                "territory"
              ]
            }
          ],
          "content": [
            {
              "inlineContent": [
                {
                  "text": "",
                  "type": "text"
                }
              ],
              "type": "paragraph"
            }
          ],
          "name": "include",
          "required": false,
          "type": [
            {
              "kind": "text",
              "text": "[string]"
            }
          ]
        },
        {
          "attributes": [
            {
              "kind": "maximum",
              "value": "200"
            }
          ],
          "content": [
            {
              "inlineContent": [
                {
                  "text": "",
                  "type": "text"
                }
              ],
              "type": "paragraph"
            }
          ],
          "name": "limit",
          "required": false,
          "type": [
            {
              "kind": "text",
              "text": "integer"
            }
          ]
        }
      ],
      "kind": "restParameters",
      "source": "query",
      "title": "Query Parameters"
    },
    {
      "items": [
        {
          "content": [
            {
              "inlineContent": [
                {
                  "text": "",
                  "type": "text"
                }
              ],
              "type": "paragraph"
            }
          ],
          "mimeType": "text/csv",
          "reason": "OK",
          "status": 200,
          "type": [
            {
              "identifier": "doc://com.apple.appstoreconnectapi/documentation/AppStoreConnectAPI/csv",
              "kind": "typeIdentifier",
              "preciseIdentifier": "data:app_store_connect_api:csv",
              "text": "csv"
            }
          ]
        },
        {
          "content": [
            {
              "inlineContent": [
                {
                  "text": "",
                  "type": "text"
                }
              ],
              "type": "paragraph"
            }
          ],
          "mimeType": "application/json",
          "reason": "Bad Request",
          "status": 400,
          "type": [
            {
              "identifier": "doc://com.apple.appstoreconnectapi/documentation/AppStoreConnectAPI/ErrorResponse",
              "kind": "typeIdentifier",
              "preciseIdentifier": "data:app_store_connect_api:ErrorResponse",
              "text": "ErrorResponse"
            }
          ]
        },
        {
          "content": [
            {
              "inlineContent": [
                {
                  "text": "",
                  "type": "text"
                }
              ],
              "type": "paragraph"
            }
          ],
          "mimeType": "application/json",
          "reason": "Unauthorized",
          "status": 401,
          "type": [
            {
              "identifier": "doc://com.apple.appstoreconnectapi/documentation/AppStoreConnectAPI/ErrorResponse",
              "kind": "typeIdentifier",
              "preciseIdentifier": "data:app_store_connect_api:ErrorResponse",
              "text": "ErrorResponse"
            }
          ]
        },
        {
          "content": [
            {
              "inlineContent": [
                {
                  "text": "",
                  "type": "text"
                }
              ],
              "type": "paragraph"
            }
          ],
          "mimeType": "application/json",
          "reason": "Forbidden",
          "status": 403,
          "type": [
            {
              "identifier": "doc://com.apple.appstoreconnectapi/documentation/AppStoreConnectAPI/ErrorResponse",
              "kind": "typeIdentifier",
              "preciseIdentifier": "data:app_store_connect_api:ErrorResponse",
              "text": "ErrorResponse"
            }
          ]
        },
        {
          "content": [
            {
              "inlineContent": [
                {
                  "text": "",
                  "type": "text"
                }
              ],
              "type": "paragraph"
            }
          ],
          "mimeType": "application/json",
          "reason": "Not Found",
          "status": 404,
          "type": [
            {
              "identifier": "doc://com.apple.appstoreconnectapi/documentation/AppStoreConnectAPI/ErrorResponse",
              "kind": "typeIdentifier",
              "preciseIdentifier": "data:app_store_connect_api:ErrorResponse",
              "text": "ErrorResponse"
            }
          ]
        }
      ],
      "kind": "restResponses",
      "title": "Response Codes"
    },
    {
      "kind": "mentions",
      "mentions": [
        "doc://com.apple.appstoreconnectapi/documentation/AppStoreConnectAPI/app-store-connect-api-2-3-release-notes"
      ]
    },
    {
      "content": [
        {
          "anchor": "Discussion",
          "level": 2,
          "text": "Discussion",
          "type": "heading"
        },
        {
          "anchor": "Example-Request-and-Response",
          "level": 3,
          "text": "Example Request and Response",
          "type": "heading"
        },
        {
          "tabs": [
            {
              "content": [
                {
                  "code": [
                    "https://api.appstoreconnect.apple.com/v1/apps/6447402192/appPricePoints?filter%5Bterritory%5D=USA,CAN&include=territory&limit=5"
                  ],
                  "syntax": null,
                  "type": "codeListing"
                }
              ],
              "title": "Request"
            },
            {
              "content": [
                {
                  "code": [
                    "{",
                    "  \"data\" : [ {",
                    "    \"type\" : \"appPricePoints\",",
                    "    \"id\" : \"eyJzIjoiNjQ0NzQwMjE5MiIsInQiOiJDQU4iLCJwIjoiMTAwMDAifQ\",",
                    "    \"attributes\" : {",
                    "      \"customerPrice\" : \"0.0\",",
                    "      \"proceeds\" : \"0.0\"",
                    "    },",
                    "    \"relationships\" : {",
                    "      \"equalizations\" : {",
                    "        \"links\" : {",
                    "          \"self\" : \"https://api.appstoreconnect.apple.com/v3/appPricePoints/eyJzIjoiNjQ0NzQwMjE5MiIsInQiOiJDQU4iLCJwIjoiMTAwMDAifQ/relationships/equalizations\",",
                    "          \"related\" : \"https://api.appstoreconnect.apple.com/v3/appPricePoints/eyJzIjoiNjQ0NzQwMjE5MiIsInQiOiJDQU4iLCJwIjoiMTAwMDAifQ/equalizations\"",
                    "        }",
                    "      },",
                    "      \"territory\" : {",
                    "        \"data\" : {",
                    "          \"type\" : \"territories\",",
                    "          \"id\" : \"CAN\"",
                    "        }",
                    "      }",
                    "    },",
                    "    \"links\" : {",
                    "      \"self\" : \"https://api.appstoreconnect.apple.com/v3/appPricePoints/eyJzIjoiNjQ0NzQwMjE5MiIsInQiOiJDQU4iLCJwIjoiMTAwMDAifQ\"",
                    "    }",
                    "  }, {",
                    "    \"type\" : \"appPricePoints\",",
                    "    \"id\" : \"eyJzIjoiNjQ0NzQwMjE5MiIsInQiOiJDQU4iLCJwIjoiMTAwMDEifQ\",",
                    "    \"attributes\" : {",
                    "      \"customerPrice\" : \"1.39\",",
                    "      \"proceeds\" : \"0.97\"",
                    "    },",
                    "    \"relationships\" : {",
                    "      \"equalizations\" : {",
                    "        \"links\" : {",
                    "          \"self\" : \"https://api.appstoreconnect.apple.com/v3/appPricePoints/eyJzIjoiNjQ0NzQwMjE5MiIsInQiOiJDQU4iLCJwIjoiMTAwMDEifQ/relationships/equalizations\",",
                    "          \"related\" : \"https://api.appstoreconnect.apple.com/v3/appPricePoints/eyJzIjoiNjQ0NzQwMjE5MiIsInQiOiJDQU4iLCJwIjoiMTAwMDEifQ/equalizations\"",
                    "        }",
                    "      },",
                    "      \"territory\" : {",
                    "        \"data\" : {",
                    "          \"type\" : \"territories\",",
                    "          \"id\" : \"CAN\"",
                    "        }",
                    "      }",
                    "    },",
                    "    \"links\" : {",
                    "      \"self\" : \"https://api.appstoreconnect.apple.com/v3/appPricePoints/eyJzIjoiNjQ0NzQwMjE5MiIsInQiOiJDQU4iLCJwIjoiMTAwMDEifQ\"",
                    "    }",
                    "  }, {",
                    "    \"type\" : \"appPricePoints\",",
                    "    \"id\" : \"eyJzIjoiNjQ0NzQwMjE5MiIsInQiOiJDQU4iLCJwIjoiMTAwMDIifQ\",",
                    "    \"attributes\" : {",
                    "      \"customerPrice\" : \"2.79\",",
                    "      \"proceeds\" : \"1.95\"",
                    "    },",
                    "    \"relationships\" : {",
                    "      \"equalizations\" : {",
                    "        \"links\" : {",
                    "          \"self\" : \"https://api.appstoreconnect.apple.com/v3/appPricePoints/eyJzIjoiNjQ0NzQwMjE5MiIsInQiOiJDQU4iLCJwIjoiMTAwMDIifQ/relationships/equalizations\",",
                    "          \"related\" : \"https://api.appstoreconnect.apple.com/v3/appPricePoints/eyJzIjoiNjQ0NzQwMjE5MiIsInQiOiJDQU4iLCJwIjoiMTAwMDIifQ/equalizations\"",
                    "        }",
                    "      },",
                    "      \"territory\" : {",
                    "        \"data\" : {",
                    "          \"type\" : \"territories\",",
                    "          \"id\" : \"CAN\"",
                    "        }",
                    "      }",
                    "    },",
                    "    \"links\" : {",
                    "      \"self\" : \"https://api.appstoreconnect.apple.com/v3/appPricePoints/eyJzIjoiNjQ0NzQwMjE5MiIsInQiOiJDQU4iLCJwIjoiMTAwMDIifQ\"",
                    "    }",
                    "  }, {",
                    "    \"type\" : \"appPricePoints\",",
                    "    \"id\" : \"eyJzIjoiNjQ0NzQwMjE5MiIsInQiOiJDQU4iLCJwIjoiMTAwMDMifQ\",",
                    "    \"attributes\" : {",
                    "      \"customerPrice\" : \"3.99\",",
                    "      \"proceeds\" : \"2.79\"",
                    "    },",
                    "    \"relationships\" : {",
                    "      \"equalizations\" : {",
                    "        \"links\" : {",
                    "          \"self\" : \"https://api.appstoreconnect.apple.com/v3/appPricePoints/eyJzIjoiNjQ0NzQwMjE5MiIsInQiOiJDQU4iLCJwIjoiMTAwMDMifQ/relationships/equalizations\",",
                    "          \"related\" : \"https://api.appstoreconnect.apple.com/v3/appPricePoints/eyJzIjoiNjQ0NzQwMjE5MiIsInQiOiJDQU4iLCJwIjoiMTAwMDMifQ/equalizations\"",
                    "        }",
                    "      },",
                    "      \"territory\" : {",
                    "        \"data\" : {",
                    "          \"type\" : \"territories\",",
                    "          \"id\" : \"CAN\"",
                    "        }",
                    "      }",
                    "    },",
                    "    \"links\" : {",
                    "      \"self\" : \"https://api.appstoreconnect.apple.com/v3/appPricePoints/eyJzIjoiNjQ0NzQwMjE5MiIsInQiOiJDQU4iLCJwIjoiMTAwMDMifQ\"",
                    "    }",
                    "  }, {",
                    "    \"type\" : \"appPricePoints\",",
                    "    \"id\" : \"eyJzIjoiNjQ0NzQwMjE5MiIsInQiOiJDQU4iLCJwIjoiMTAwMDQifQ\",",
                    "    \"attributes\" : {",
                    "      \"customerPrice\" : \"5.49\",",
                    "      \"proceeds\" : \"3.84\"",
                    "    },",
                    "    \"relationships\" : {",
                    "      \"equalizations\" : {",
                    "        \"links\" : {",
                    "          \"self\" : \"https://api.appstoreconnect.apple.com/v3/appPricePoints/eyJzIjoiNjQ0NzQwMjE5MiIsInQiOiJDQU4iLCJwIjoiMTAwMDQifQ/relationships/equalizations\",",
                    "          \"related\" : \"https://api.appstoreconnect.apple.com/v3/appPricePoints/eyJzIjoiNjQ0NzQwMjE5MiIsInQiOiJDQU4iLCJwIjoiMTAwMDQifQ/equalizations\"",
                    "        }",
                    "      },",
                    "      \"territory\" : {",
                    "        \"data\" : {",
                    "          \"type\" : \"territories\",",
                    "          \"id\" : \"CAN\"",
                    "        }",
                    "      }",
                    "    },",
                    "    \"links\" : {",
                    "      \"self\" : \"https://api.appstoreconnect.apple.com/v3/appPricePoints/eyJzIjoiNjQ0NzQwMjE5MiIsInQiOiJDQU4iLCJwIjoiMTAwMDQifQ\"",
                    "    }",
                    "  } ],",
                    "  \"included\" : [ {",
                    "    \"type\" : \"territories\",",
                    "    \"id\" : \"CAN\",",
                    "    \"attributes\" : {",
                    "      \"currency\" : \"CAD\"",
                    "    },",
                    "    \"links\" : {",
                    "      \"self\" : \"https://api.appstoreconnect.apple.com/v1/territories/CAN\"",
                    "    }",
                    "  } ],",
                    "  \"links\" : {",
                    "    \"self\" : \"https://api.appstoreconnect.apple.com/v1/apps/6447402192/appPricePoints?include=territory&filter%5Bterritory%5D=CAN%2CUSA&limit=5\",",
                    "    \"next\" : \"https://api.appstoreconnect.apple.com/v1/apps/6447402192/appPricePoints?cursor=BQ.AMN1C2M&include=territory&filter%5Bterritory%5D=CAN%2CUSA&limit=5\"",
                    "  },",
                    "  \"meta\" : {",
                    "    \"paging\" : {",
                    "      \"total\" : 1602,",
                    "      \"limit\" : 5",
                    "    }",
                    "  }",
                    "}"
                  ],
                  "syntax": "json",
                  "type": "codeListing"
                }
              ],
              "title": "Response"
            }
          ],
          "type": "tabNavigator"
        }
      ],
      "kind": "content"
    }
  ],
  "references": {
    "doc://com.apple.appstoreconnectapi/documentation/AppStoreConnectAPI": {
      "abstract": [
        {
          "text": "Automate the tasks you perform on the Apple Developer website and in App Store Connect.",
          "type": "text"
        }
      ],
      "identifier": "doc://com.apple.appstoreconnectapi/documentation/AppStoreConnectAPI",
      "kind": "symbol",
      "role": "collection",
      "title": "App Store Connect API",
      "type": "topic",
      "url": "/documentation/appstoreconnectapi"
    },
    "doc://com.apple.appstoreconnectapi/documentation/AppStoreConnectAPI/ErrorResponse": {
      "abstract": [
        {
          "text": "The error details that an API returns in the response body whenever the API request isn’t successful.",
          "type": "text"
        }
      ],
      "fragments": [
        {
          "kind": "text",
          "text": "object "
        },
        {
          "kind": "identifier",
          "text": "ErrorResponse"
        }
      ],
      "identifier": "doc://com.apple.appstoreconnectapi/documentation/AppStoreConnectAPI/ErrorResponse",
      "kind": "symbol",
      "navigatorTitle": [
        {
          "kind": "identifier",
          "text": "ErrorResponse"
        }
      ],
      "role": "symbol",
      "title": "ErrorResponse",
      "type": "topic",
      "url": "/documentation/appstoreconnectapi/errorresponse"
    },
    "doc://com.apple.appstoreconnectapi/documentation/AppStoreConnectAPI/GET-v1-apps": {
      "abstract": [
        {
          "text": "Find and list apps in App Store Connect.",
          "type": "text"
        }
      ],
      "identifier": "doc://com.apple.appstoreconnectapi/documentation/AppStoreConnectAPI/GET-v1-apps",
      "kind": "symbol",
      "navigatorTitle": [
        {
          "kind": "identifier",
          "text": "GET /v1/apps"
        }
      ],
      "role": "symbol",
      "title": "List Apps",
      "type": "topic",
      "url": "/documentation/appstoreconnectapi/get-v1-apps"
    },
    "doc://com.apple.appstoreconnectapi/documentation/AppStoreConnectAPI/GET-v1-apps-_id_-appPricePoints": {
      "abstract": [
        {
          "text": "Get all the available price points for a specific app.",
          "type": "text"
        }
      ],
      "identifier": "doc://com.apple.appstoreconnectapi/documentation/AppStoreConnectAPI/GET-v1-apps-_id_-appPricePoints",
      "kind": "symbol",
      "navigatorTitle": [
        {
          "kind": "identifier",
          "text": "GET /v1/apps/{id}/appPricePoints"
        }
      ],
      "role": "symbol",
      "title": "List all price points for an app",
      "type": "topic",
      "url": "/documentation/appstoreconnectapi/get-v1-apps-_id_-apppricepoints"
    },
    "doc://com.apple.appstoreconnectapi/documentation/AppStoreConnectAPI/GET-v3-appPricePoints-_id_": {
      "abstract": [
        {
          "text": "Get details about a specific app price point.",
          "type": "text"
        }
      ],
      "identifier": "doc://com.apple.appstoreconnectapi/documentation/AppStoreConnectAPI/GET-v3-appPricePoints-_id_",
      "kind": "symbol",
      "navigatorTitle": [
        {
          "kind": "identifier",
          "text": "GET /v3/appPricePoints/{id}"
        }
      ],
      "role": "symbol",
      "title": "Read app price point information",
      "type": "topic",
      "url": "/documentation/appstoreconnectapi/get-v3-apppricepoints-_id_"
    },
    "doc://com.apple.appstoreconnectapi/documentation/AppStoreConnectAPI/GET-v3-appPricePoints-_id_-equalizations": {
      "abstract": [
        {
          "text": "List all equivalent app prices points to a base price point.",
          "type": "text"
        }
      ],
      "identifier": "doc://com.apple.appstoreconnectapi/documentation/AppStoreConnectAPI/GET-v3-appPricePoints-_id_-equalizations",
      "kind": "symbol",
      "navigatorTitle": [
        {
          "kind": "identifier",
          "text": "GET /v3/appPricePoints/{id}/equalizations"
        }
      ],
      "role": "symbol",
      "title": "List app price point equalizations",
      "type": "topic",
      "url": "/documentation/appstoreconnectapi/get-v3-apppricepoints-_id_-equalizations"
    },
    "doc://com.apple.appstoreconnectapi/documentation/AppStoreConnectAPI/app-store-connect-api-2-3-release-notes": {
      "abstract": [
        {
          "text": "Update your server-side code to use new features, and test your code against API changes.",
          "type": "text"
        }
      ],
      "identifier": "doc://com.apple.appstoreconnectapi/documentation/AppStoreConnectAPI/app-store-connect-api-2-3-release-notes",
      "kind": "article",
      "role": "article",
      "title": "App Store Connect API 2.3 release notes",
      "type": "topic",
      "url": "/documentation/appstoreconnectapi/app-store-connect-api-2-3-release-notes"
    },
    "doc://com.apple.appstoreconnectapi/documentation/AppStoreConnectAPI/csv": {
      "abstract": [],
      "fragments": [
        {
          "kind": "text",
          "text": "type "
        },
        {
          "kind": "identifier",
          "text": "csv"
        }
      ],
      "identifier": "doc://com.apple.appstoreconnectapi/documentation/AppStoreConnectAPI/csv",
      "kind": "symbol",
      "navigatorTitle": [
        {
          "kind": "identifier",
          "text": "csv"
        }
      ],
      "role": "symbol",
      "title": "csv",
      "type": "topic",
      "url": "/documentation/appstoreconnectapi/csv"
    },
    "doc://com.apple.documentation/documentation/technologies": {
      "abstract": [
        {
          "text": "",
          "type": "text"
        }
      ],
      "identifier": "doc://com.apple.documentation/documentation/technologies",
      "kind": "technologies",
      "role": "overview",
      "title": "Technologies",
      "type": "topic",
      "url": "/documentation/technologies"
    }
  },
  "schemaVersion": {
    "major": 0,
    "minor": 3,
    "patch": 0
  },
  "sections": [],
  "seeAlsoSections": [
    {
      "anchor": "Getting-an-apps-price-points",
      "generated": true,
      "identifiers": [
        "doc://com.apple.appstoreconnectapi/documentation/AppStoreConnectAPI/GET-v3-appPricePoints-_id_",
        "doc://com.apple.appstoreconnectapi/documentation/AppStoreConnectAPI/GET-v3-appPricePoints-_id_-equalizations"
      ],
      "title": "Getting an app’s price points"
    }
  ],
  "variants": [
    {
      "paths": [
        "/documentation/appstoreconnectapi/get-v1-apps-_id_-apppricepoints"
      ],
      "traits": [
        {
          "interfaceLanguage": "data"
        }
      ]
    }
  ]
}
