{
  "abstract": [
    {
      "text": "Get a list of customer reviews for a specific app.",
      "type": "text"
    }
  ],
  "diffAvailability": {
    "beta": {
      "change": "modified",
      "platform": "App Store Connect API",
      "versions": [
        "3.6 beta 1",
        "3.6"
      ]
    },
    "major": {
      "change": "modified",
      "platform": "App Store Connect API",
      "versions": [
        "3.0",
        "3.6"
      ]
    },
    "minor": {
      "change": "modified",
      "platform": "App Store Connect API",
      "versions": [
        "3.5",
        "3.6"
      ]
    }
  },
  "hierarchy": {
    "paths": [
      [
        "doc://com.apple.documentation/documentation/technologies",
        "doc://com.apple.appstoreconnectapi/documentation/AppStoreConnectAPI"
      ]
    ]
  },
  "identifier": {
    "interfaceLanguage": "data",
    "url": "doc://com.apple.appstoreconnectapi/documentation/AppStoreConnectAPI/GET-v1-apps-_id_-customerReviews"
  },
  "kind": "symbol",
  "legalNotices": {
    "copyright": "Copyright &copy; 2025 Apple Inc. All rights reserved.",
    "privacyPolicy": "https://www.apple.com/privacy/privacy-policy",
    "termsOfUse": "https://www.apple.com/legal/internet-services/terms/site.html"
  },
  "metadata": {
    "externalID": "rest:app_store_connect_api:get:v1-apps-{}-customerReviews",
    "modules": [
      {
        "name": "App Store Connect API"
      }
    ],
    "navigatorTitle": [
      {
        "kind": "identifier",
        "text": "GET /v1/apps/{id}/customerReviews"
      }
    ],
    "platforms": [
      {
        "beta": false,
        "introducedAt": "2.0",
        "name": "App Store Connect API"
      }
    ],
    "role": "symbol",
    "roleHeading": "Web Service Endpoint",
    "symbolKind": "httpRequest",
    "title": "List All Customer Reviews for an App"
  },
  "primaryContentSections": [
    {
      "kind": "restEndpoint",
      "title": "URL",
      "tokens": [
        {
          "kind": "method",
          "text": "GET"
        },
        {
          "kind": "text",
          "text": " "
        },
        {
          "kind": "baseURL",
          "text": "https://api.appstoreconnect.apple.com/"
        },
        {
          "kind": "path",
          "text": "v1/apps/"
        },
        {
          "kind": "parameter",
          "text": "{id}"
        },
        {
          "kind": "path",
          "text": "/customerReviews"
        }
      ]
    },
    {
      "items": [
        {
          "attributes": [],
          "content": [
            {
              "inlineContent": [
                {
                  "text": "The opaque resource ID that uniquely identifies the ",
                  "type": "text"
                },
                {
                  "code": "apps",
                  "type": "codeVoice"
                },
                {
                  "text": " resource that represents your app. Obtain the app resource ID from the ",
                  "type": "text"
                },
                {
                  "identifier": "doc://com.apple.appstoreconnectapi/documentation/AppStoreConnectAPI/GET-v1-apps",
                  "isActive": true,
                  "type": "reference"
                },
                {
                  "text": " response.",
                  "type": "text"
                }
              ],
              "type": "paragraph"
            }
          ],
          "name": "id",
          "required": true,
          "type": [
            {
              "kind": "text",
              "text": "string"
            }
          ]
        }
      ],
      "kind": "restParameters",
      "source": "path",
      "title": "Path Parameters"
    },
    {
      "items": [
        {
          "attributes": [
            {
              "kind": "allowedValues",
              "values": [
                "responseBody",
                "lastModifiedDate",
                "state",
                "review"
              ]
            }
          ],
          "content": [
            {
              "inlineContent": [
                {
                  "text": "Fields to return for the included related types.",
                  "type": "text"
                }
              ],
              "type": "paragraph"
            }
          ],
          "name": "fields[customerReviewResponses]",
          "required": false,
          "type": [
            {
              "kind": "text",
              "text": "[string]"
            }
          ]
        },
        {
          "attributes": [
            {
              "kind": "allowedValues",
              "values": [
                "rating",
                "title",
                "body",
                "reviewerNickname",
                "createdDate",
                "territory",
                "response"
              ]
            }
          ],
          "content": [
            {
              "inlineContent": [
                {
                  "text": "Fields to return for the included related types.",
                  "type": "text"
                }
              ],
              "type": "paragraph"
            }
          ],
          "name": "fields[customerReviews]",
          "required": false,
          "type": [
            {
              "kind": "text",
              "text": "[string]"
            }
          ]
        },
        {
          "attributes": [],
          "content": [
            {
              "inlineContent": [
                {
                  "text": "An array of numerical rating values by which to filter. For example, filtering for 1,2,5 shows only reviews with ratings of 1, 2, or 5. The minimum numeric rating value is 1, and the maximum is 5.",
                  "type": "text"
                }
              ],
              "type": "paragraph"
            }
          ],
          "name": "filter[rating]",
          "required": false,
          "type": [
            {
              "kind": "text",
              "text": "[string]"
            }
          ]
        },
        {
          "attributes": [
            {
              "kind": "allowedValues",
              "values": [
                "response"
              ]
            }
          ],
          "content": [
            {
              "inlineContent": [
                {
                  "text": "Relationship data to include in the response.",
                  "type": "text"
                }
              ],
              "type": "paragraph"
            }
          ],
          "name": "include",
          "required": false,
          "type": [
            {
              "kind": "text",
              "text": "[string]"
            }
          ]
        },
        {
          "attributes": [
            {
              "kind": "maximum",
              "value": "200"
            }
          ],
          "content": [
            {
              "inlineContent": [
                {
                  "text": "Number of resources to return.",
                  "type": "text"
                }
              ],
              "type": "paragraph"
            }
          ],
          "name": "limit",
          "required": false,
          "type": [
            {
              "kind": "text",
              "text": "integer"
            }
          ]
        },
        {
          "attributes": [
            {
              "kind": "allowedValues",
              "values": [
                "rating",
                "-rating",
                "createdDate",
                "-createdDate"
              ]
            }
          ],
          "content": [
            {
              "inlineContent": [
                {
                  "text": "Attributes by which to sort. Supports one sort parameter at a time.",
                  "type": "text"
                }
              ],
              "type": "paragraph"
            }
          ],
          "name": "sort",
          "required": false,
          "type": [
            {
              "kind": "text",
              "text": "[string]"
            }
          ]
        },
        {
          "attributes": [
            {
              "kind": "allowedValues",
              "values": [
                "ABW",
                "AFG",
                "AGO",
                "AIA",
                "ALB",
                "AND",
                "ANT",
                "ARE",
                "ARG",
                "ARM",
                "ASM",
                "ATG",
                "AUS",
                "AUT",
                "AZE",
                "BDI",
                "BEL",
                "BEN",
                "BES",
                "BFA",
                "BGD",
                "BGR",
                "BHR",
                "BHS",
                "BIH",
                "BLR",
                "BLZ",
                "BMU",
                "BOL",
                "BRA",
                "BRB",
                "BRN",
                "BTN",
                "BWA",
                "CAF",
                "CAN",
                "CHE",
                "CHL",
                "CHN",
                "CIV",
                "CMR",
                "COD",
                "COG",
                "COK",
                "COL",
                "COM",
                "CPV",
                "CRI",
                "CUB",
                "CUW",
                "CXR",
                "CYM",
                "CYP",
                "CZE",
                "DEU",
                "DJI",
                "DMA",
                "DNK",
                "DOM",
                "DZA",
                "ECU",
                "EGY",
                "ERI",
                "ESP",
                "EST",
                "ETH",
                "FIN",
                "FJI",
                "FLK",
                "FRA",
                "FRO",
                "FSM",
                "GAB",
                "GBR",
                "GEO",
                "GGY",
                "GHA",
                "GIB",
                "GIN",
                "GLP",
                "GMB",
                "GNB",
                "GNQ",
                "GRC",
                "GRD",
                "GRL",
                "GTM",
                "GUF",
                "GUM",
                "GUY",
                "HKG",
                "HND",
                "HRV",
                "HTI",
                "HUN",
                "IDN",
                "IMN",
                "IND",
                "IRL",
                "IRQ",
                "ISL",
                "ISR",
                "ITA",
                "JAM",
                "JEY",
                "JOR",
                "JPN",
                "KAZ",
                "KEN",
                "KGZ",
                "KHM",
                "KIR",
                "KNA",
                "KOR",
                "KWT",
                "LAO",
                "LBN",
                "LBR",
                "LBY",
                "LCA",
                "LIE",
                "LKA",
                "LSO",
                "LTU",
                "LUX",
                "LVA",
                "MAC",
                "MAR",
                "MCO",
                "MDA",
                "MDG",
                "MDV",
                "MEX",
                "MHL",
                "MKD",
                "MLI",
                "MLT",
                "MMR",
                "MNE",
                "MNG",
                "MNP",
                "MOZ",
                "MRT",
                "MSR",
                "MTQ",
                "MUS",
                "MWI",
                "MYS",
                "MYT",
                "NAM",
                "NCL",
                "NER",
                "NFK",
                "NGA",
                "NIC",
                "NIU",
                "NLD",
                "NOR",
                "NPL",
                "NRU",
                "NZL",
                "OMN",
                "PAK",
                "PAN",
                "PER",
                "PHL",
                "PLW",
                "PNG",
                "POL",
                "PRI",
                "PRT",
                "PRY",
                "PSE",
                "PYF",
                "QAT",
                "REU",
                "ROU",
                "RUS",
                "RWA",
                "SAU",
                "SEN",
                "SGP",
                "SHN",
                "SLB",
                "SLE",
                "SLV",
                "SMR",
                "SOM",
                "SPM",
                "SRB",
                "SSD",
                "STP",
                "SUR",
                "SVK",
                "SVN",
                "SWE",
                "SWZ",
                "SXM",
                "SYC",
                "TCA",
                "TCD",
                "TGO",
                "THA",
                "TJK",
                "TKM",
                "TLS",
                "TON",
                "TTO",
                "TUN",
                "TUR",
                "TUV",
                "TWN",
                "TZA",
                "UGA",
                "UKR",
                "UMI",
                "URY",
                "USA",
                "UZB",
                "VAT",
                "VCT",
                "VEN",
                "VGB",
                "VIR",
                "VNM",
                "VUT",
                "WLF",
                "WSM",
                "YEM",
                "ZAF",
                "ZMB",
                "ZWE"
              ]
            }
          ],
          "content": [
            {
              "inlineContent": [
                {
                  "text": "A filter of territories to include in the response.",
                  "type": "text"
                }
              ],
              "type": "paragraph"
            }
          ],
          "name": "filter[territory]",
          "required": false,
          "type": [
            {
              "kind": "text",
              "text": "[string]"
            }
          ]
        },
        {
          "attributes": [],
          "content": [
            {
              "inlineContent": [
                {
                  "text": "A Boolean value that filters the reviews based on whether the review has a published response in the App Store. Use ",
                  "type": "text"
                },
                {
                  "code": "true",
                  "type": "codeVoice"
                },
                {
                  "text": " to return the customer reviews that already have a published response in the App Store. Use ",
                  "type": "text"
                },
                {
                  "code": "false",
                  "type": "codeVoice"
                },
                {
                  "text": " to return the customer reviews that don’t have a published response. Note that it’s possible that a review has a response that isn’t yet published.",
                  "type": "text"
                }
              ],
              "type": "paragraph"
            }
          ],
          "name": "exists[publishedResponse]",
          "required": false,
          "type": [
            {
              "kind": "text",
              "text": "boolean"
            }
          ]
        }
      ],
      "kind": "restParameters",
      "source": "query",
      "title": "Query Parameters"
    },
    {
      "items": [
        {
          "content": [
            {
              "inlineContent": [
                {
                  "text": "",
                  "type": "text"
                }
              ],
              "type": "paragraph"
            }
          ],
          "mimeType": "application/json",
          "reason": "OK",
          "status": 200,
          "type": [
            {
              "identifier": "doc://com.apple.appstoreconnectapi/documentation/AppStoreConnectAPI/CustomerReviewsResponse",
              "kind": "typeIdentifier",
              "preciseIdentifier": "data:app_store_connect_api:CustomerReviewsResponse",
              "text": "CustomerReviewsResponse"
            }
          ]
        },
        {
          "content": [
            {
              "inlineContent": [
                {
                  "text": "An error occurred with your request.",
                  "type": "text"
                }
              ],
              "type": "paragraph"
            }
          ],
          "mimeType": "application/json",
          "reason": "Bad Request",
          "status": 400,
          "type": [
            {
              "identifier": "doc://com.apple.appstoreconnectapi/documentation/AppStoreConnectAPI/ErrorResponse",
              "kind": "typeIdentifier",
              "preciseIdentifier": "data:app_store_connect_api:ErrorResponse",
              "text": "ErrorResponse"
            }
          ]
        },
        {
          "content": [
            {
              "inlineContent": [
                {
                  "text": "",
                  "type": "text"
                }
              ],
              "type": "paragraph"
            }
          ],
          "mimeType": "application/json",
          "reason": "Unauthorized",
          "status": 401,
          "type": [
            {
              "identifier": "doc://com.apple.appstoreconnectapi/documentation/AppStoreConnectAPI/ErrorResponse",
              "kind": "typeIdentifier",
              "preciseIdentifier": "data:app_store_connect_api:ErrorResponse",
              "text": "ErrorResponse"
            }
          ]
        },
        {
          "content": [
            {
              "inlineContent": [
                {
                  "text": "Request not authorized.",
                  "type": "text"
                }
              ],
              "type": "paragraph"
            }
          ],
          "mimeType": "application/json",
          "reason": "Forbidden",
          "status": 403,
          "type": [
            {
              "identifier": "doc://com.apple.appstoreconnectapi/documentation/AppStoreConnectAPI/ErrorResponse",
              "kind": "typeIdentifier",
              "preciseIdentifier": "data:app_store_connect_api:ErrorResponse",
              "text": "ErrorResponse"
            }
          ]
        },
        {
          "content": [
            {
              "inlineContent": [
                {
                  "text": "Resource not found.",
                  "type": "text"
                }
              ],
              "type": "paragraph"
            }
          ],
          "mimeType": "application/json",
          "reason": "Not Found",
          "status": 404,
          "type": [
            {
              "identifier": "doc://com.apple.appstoreconnectapi/documentation/AppStoreConnectAPI/ErrorResponse",
              "kind": "typeIdentifier",
              "preciseIdentifier": "data:app_store_connect_api:ErrorResponse",
              "text": "ErrorResponse"
            }
          ]
        }
      ],
      "kind": "restResponses",
      "title": "Response Codes"
    },
    {
      "content": [
        {
          "anchor": "Discussion",
          "level": 2,
          "text": "Discussion",
          "type": "heading"
        },
        {
          "inlineContent": [
            {
              "text": "The example below limits the number of reviews returned in the response.",
              "type": "text"
            }
          ],
          "type": "paragraph"
        },
        {
          "anchor": "Example-Request-and-Response",
          "level": 3,
          "text": "Example Request and Response",
          "type": "heading"
        },
        {
          "tabs": [
            {
              "content": [
                {
                  "code": [
                    "https://api.appstoreconnect.apple.com/v1/apps/682658836/customerReviews?limit=1"
                  ],
                  "syntax": null,
                  "type": "codeListing"
                }
              ],
              "title": "Request"
            },
            {
              "content": [
                {
                  "code": [
                    "{",
                    "  \"data\": [",
                    "    {",
                    "      \"type\": \"customerReviews\",",
                    "      \"id\": \"00000028-b08c-0014-729e-fbd500000000\",",
                    "      \"attributes\": {",
                    "        \"rating\": 5,",
                    "        \"title\": \"Awesome!!!\",",
                    "        \"body\": \"It's a really fantastic app!\",",
                    "        \"reviewerNickname\": \"Anne Johnson\",",
                    "        \"createdDate\": \"2017-11-15T08:10:34-08:00\",",
                    "        \"territory\": \"USA\"",
                    "      },",
                    "      \"relationships\": {",
                    "        \"response\": {",
                    "          \"links\": {",
                    "            \"self\": \"https://api.appstoreconnect.apple.com/v1/customerReviews/00000028-b08c-0014-729e-fbd500000000/relationships/response\",",
                    "            \"related\": \"https://api.appstoreconnect.apple.com/v1/customerReviews/00000028-b08c-0014-729e-fbd500000000/response\"",
                    "          }",
                    "        }",
                    "      },",
                    "      \"links\": {",
                    "        \"self\": \"https://api.appstoreconnect.apple.com/v1/customerReviews/00000028-b08c-0014-729e-fbd500000000\"",
                    "      }",
                    "    }",
                    "  ],",
                    "  \"links\": {",
                    "    \"self\": \"https://api.appstoreconnect.apple.com/v1/apps/682658836/customerReviews?limit=1\",",
                    "    \"next\": \"https://api.appstoreconnect.apple.com/v1/apps/682658836/customerReviews?cursor=AQ.AMt2C-U&limit=1\"",
                    "  },",
                    "  \"meta\": {",
                    "    \"paging\": {",
                    "      \"total\": 4326,",
                    "      \"limit\": 1",
                    "    }",
                    "  }",
                    "}"
                  ],
                  "syntax": "json",
                  "type": "codeListing"
                }
              ],
              "title": "Response"
            }
          ],
          "type": "tabNavigator"
        }
      ],
      "kind": "content"
    }
  ],
  "references": {
    "doc://com.apple.appstoreconnectapi/documentation/AppStoreConnectAPI": {
      "abstract": [
        {
          "text": "Automate the tasks you perform on the Apple Developer website and in App Store Connect.",
          "type": "text"
        }
      ],
      "identifier": "doc://com.apple.appstoreconnectapi/documentation/AppStoreConnectAPI",
      "kind": "symbol",
      "role": "collection",
      "title": "App Store Connect API",
      "type": "topic",
      "url": "/documentation/appstoreconnectapi"
    },
    "doc://com.apple.appstoreconnectapi/documentation/AppStoreConnectAPI/CustomerReviewsResponse": {
      "abstract": [
        {
          "text": "A response that contains a list of Customer Reviews resources.",
          "type": "text"
        }
      ],
      "fragments": [
        {
          "kind": "text",
          "text": "object "
        },
        {
          "kind": "identifier",
          "text": "CustomerReviewsResponse"
        }
      ],
      "identifier": "doc://com.apple.appstoreconnectapi/documentation/AppStoreConnectAPI/CustomerReviewsResponse",
      "kind": "symbol",
      "navigatorTitle": [
        {
          "kind": "identifier",
          "text": "CustomerReviewsResponse"
        }
      ],
      "role": "symbol",
      "title": "CustomerReviewsResponse",
      "type": "topic",
      "url": "/documentation/appstoreconnectapi/customerreviewsresponse"
    },
    "doc://com.apple.appstoreconnectapi/documentation/AppStoreConnectAPI/ErrorResponse": {
      "abstract": [
        {
          "text": "The error details that an API returns in the response body whenever the API request isn’t successful.",
          "type": "text"
        }
      ],
      "fragments": [
        {
          "kind": "text",
          "text": "object "
        },
        {
          "kind": "identifier",
          "text": "ErrorResponse"
        }
      ],
      "identifier": "doc://com.apple.appstoreconnectapi/documentation/AppStoreConnectAPI/ErrorResponse",
      "kind": "symbol",
      "navigatorTitle": [
        {
          "kind": "identifier",
          "text": "ErrorResponse"
        }
      ],
      "role": "symbol",
      "title": "ErrorResponse",
      "type": "topic",
      "url": "/documentation/appstoreconnectapi/errorresponse"
    },
    "doc://com.apple.appstoreconnectapi/documentation/AppStoreConnectAPI/GET-v1-apps": {
      "abstract": [
        {
          "text": "Find and list apps in App Store Connect.",
          "type": "text"
        }
      ],
      "identifier": "doc://com.apple.appstoreconnectapi/documentation/AppStoreConnectAPI/GET-v1-apps",
      "kind": "symbol",
      "navigatorTitle": [
        {
          "kind": "identifier",
          "text": "GET /v1/apps"
        }
      ],
      "role": "symbol",
      "title": "List Apps",
      "type": "topic",
      "url": "/documentation/appstoreconnectapi/get-v1-apps"
    },
    "doc://com.apple.appstoreconnectapi/documentation/AppStoreConnectAPI/GET-v1-apps-_id_-customerReviews": {
      "abstract": [
        {
          "text": "Get a list of customer reviews for a specific app.",
          "type": "text"
        }
      ],
      "identifier": "doc://com.apple.appstoreconnectapi/documentation/AppStoreConnectAPI/GET-v1-apps-_id_-customerReviews",
      "kind": "symbol",
      "navigatorTitle": [
        {
          "kind": "identifier",
          "text": "GET /v1/apps/{id}/customerReviews"
        }
      ],
      "role": "symbol",
      "title": "List All Customer Reviews for an App",
      "type": "topic",
      "url": "/documentation/appstoreconnectapi/get-v1-apps-_id_-customerreviews"
    },
    "doc://com.apple.documentation/documentation/technologies": {
      "abstract": [
        {
          "text": "",
          "type": "text"
        }
      ],
      "identifier": "doc://com.apple.documentation/documentation/technologies",
      "kind": "technologies",
      "role": "overview",
      "title": "Technologies",
      "type": "topic",
      "url": "/documentation/technologies"
    }
  },
  "schemaVersion": {
    "major": 0,
    "minor": 3,
    "patch": 0
  },
  "sections": [],
  "variants": [
    {
      "paths": [
        "/documentation/appstoreconnectapi/get-v1-apps-_id_-customerreviews"
      ],
      "traits": [
        {
          "interfaceLanguage": "data"
        }
      ]
    }
  ]
}
